Create models with parsnip :: Cheatsheet
…
Call:
stats::lm(formula = mpg ~ ., data = data)

Coefficients:
(Intercept)          cyl         disp           hp         drat           wt  
   12.30337     -0.11144      0.01334     -0.02148      0.78711     -3.71530  
       qsec           vs           am         gear         carb  
    0.82104      0.31776      2.52023      0.65541     -0.19942  

predict(object, ...)

predict(lm_fit, mtcars)

# A tibble: 32 × 1
   .pred
   <dbl>
 1  22.6
 2  22.1
 3  26.3
 4  21.2
 5  17.7
 6  20.4
 7  14.4
 8  22.5
 9  24.4
10  18.7
# ℹ 22 more rows

autoplot(object, ...) - Uses ggplot2 to draw a particular plot for an object of a particular class

update(object, ...) - Updates and (by default) re-fit a model. It does this by extracting the call stored in the object, updating the call and evaluating that call.

Tidiers

augment(x, ...) - Augment data with model results

augment(lm_fit, mtcars)

# A tibble: 32 × 13
   .pred  .resid   mpg   cyl  disp    hp  drat    wt  qsec    vs    am  gear
   <dbl>   <dbl> <dbl> <dbl> <dbl> <dbl> <dbl> <dbl> <dbl> <dbl> <dbl> <dbl>
 1  22.6 -1.60    21       6  160    110  3.9   2.62  16.5     0     1     4
 2  22.1 -1.11    21       6  160    110  3.9   2.88  17.0     0     1     4
 3  26.3 -3.45    22.8     4  108     93  3.85  2.32  18.6     1     1     4
 4  21.2  0.163   21.4     6  258    110  3.08  3.22  19.4     1     0     3
 5  17.7  1.01    18.7     8  360    175  3.15  3.44  17.0     0     0     3
 6  20.4 -2.28    18.1     6  225    105  2.76  3.46  20.2     1     0     3
 7  14.4 -0.0863  14.3     8  360    245  3.21  3.57  15.8     0     0     3
 8  22.5  1.90    24.4     4  147.    62  3.69  3.19  20       1     0     4
 9  24.4 -1.62    22.8     4  141.    95  3.92  3.15  22.9     1     0     4
10  18.7  0.501   19.2     6  168.   123  3.92  3.44  18.3     1     0     4
# ℹ 22 more rows
# ℹ 1 more variable: carb <dbl>
…
